Concatenate First Names and Surnames in a Data Frame into Delimiter-Separated Character Strings — cat_names • BitsnBobs
…
By default, the name pairs within a string are separated using commas or otherwise using .delimiter, if
provided.

    See also

    paste, <tidy-select>.

    Examples

starwars2 ## Has name column of original starwars split into Firstname and Surname
#> # A tibble: 63 × 12
#>    Firstname Surname     height  mass hair_color skin_color eye_color birth_year
#>    <chr>     <chr>        <int> <dbl> <chr>      <chr>      <chr>          <dbl>
#>  1 Luke      Skywalker      172    77 blond      fair       blue            19  
#>  2 Darth     Vader          202   136 none       white      yellow          41.9
#>  3 Leia      Organa         150    49 brown      light      brown           19  
#>  4 Owen      Lars           178   120 brown, gr… light      blue            52  
#>  5 Beru      Whitesun L…    165    75 brown      light      blue            47  
#>  6 Biggs     Darklighter    183    84 black      light      brown           24  
#>  7 Obi-Wan   Kenobi         182    77 auburn, w… fair       blue-gray       57  
#>  8 Anakin    Skywalker      188    84 blond      fair       blue            41.9
#>  9 Wilhuff   Tarkin         180    NA auburn, g… fair       blue            64  
#> 10 Han       Solo           180    80 brown      fair       brown           29  
#> # ℹ 53 more rows
#> # ℹ 4 more variables: sex <chr>, gender <chr>, homeworld <chr>, species <chr>
…
