Search for Pattern in a Data Frame Character Column — detective • BitsnBobs
…
## Select columns using <tidy-select> syntax from {dplyr},
## including use of “selection helpers”
starwars |> detective(glob2rx("*"), !c(name, contains("color")))
#> # A tibble: 65 × 5
#>    sex    gender    homeworld species      n
#>    <chr>  <chr>     <chr>     <chr>    <int>
#>  1 male   masculine Tatooine  Human        6
#>  2 male   masculine NA        Human        4
#>  3 male   masculine Naboo     Gungan       3
#>  4 male   masculine Naboo     Human        3
#>  5 female feminine  Mirial    Mirialan     2
#>  6 female feminine  Naboo     Human        2
#>  7 female feminine  Tatooine  Human        2
#>  8 female feminine  NA        Human        2
#>  9 male   masculine Alderaan  Human        2
#> 10 male   masculine Corellia  Human        2
#> # ℹ 55 more rows
starwars |> detective(
        "brown", contains("color"), species,
        .arrange_by = across(contains("color"))
    )
#> # A tibble: 25 × 5
#>    hair_color skin_color eye_color species     n
#>    <chr>      <chr>      <chr>     <chr>   <int>
#>  1 black      brown      brown     Zabrak      1
#>  2 black      dark       brown     Human       2
#>  3 black      dark       brown     NA          1
#>  4 black      fair       brown     Human       2
#>  5 black      light      brown     Human       1
#>  6 black      tan        brown     Human       2
#>  7 brown      brown      blue      Wookiee     1
#>  8 brown      brown      brown     Ewok        1
#>  9 brown      fair       blue      Human       3
#> 10 brown      fair       blue      NA          1
#> # ℹ 15 more rows
…
starwars |> detective(
        "brown", contains("color"), species,
    ) <- "chestnut"

starwars |> detective("brown", name, contains("color"), species)
#> # A tibble: 0 × 6
#> # ℹ 6 variables: name <chr>, hair_color <chr>, skin_color <chr>,
#> #   eye_color <chr>, species <chr>, n <int>

starwars |> detective("chestnut", name, contains("color"), species)
#> # A tibble: 35 × 6
#>    name                hair_color skin_color eye_color species          n
#>    <chr>               <chr>      <chr>      <chr>     <chr>        <int>
#>  1 Ackbar              none       chestnut   orange    Mon Calamari     1
#>  2 Arvel Crynyd        chestnut   fair       chestnut  Human            1
#>  3 Bail Prestor Organa black      tan        chestnut  Human            1
#>  4 Beru Whitesun Lars  chestnut   light      blue      Human            1
#>  5 Biggs Darklighter   black      light      chestnut  Human            1
#>  6 Boba Fett           black      fair       chestnut  Human            1
#>  7 Chewbacca           chestnut   unknown    blue      Wookiee          1
#>  8 Cliegg Lars         chestnut   fair       blue      Human            1
#>  9 Cordé               chestnut   light      chestnut  NA               1
#> 10 Dexter Jettster     none       chestnut   yellow    Besalisk         1
#> # ℹ 25 more rows
…
