Print All (or More) of an Object — print_all • BitsnBobs
…
    See also

    print(), print_lf(), method_info(),
methods(), tibble.

Other print:
catapult(),
lf()

    Examples

(tib <- tibble(x = 1:26, y = LETTERS[x], z = paste0(x, y)))
#> # A tibble: 26 × 3
#>        x y     z    
#>    <int> <chr> <chr>
#>  1     1 A     1A   
#>  2     2 B     2B   
#>  3     3 C     3C   
#>  4     4 D     4D   
#>  5     5 E     5E   
#>  6     6 F     6F   
#>  7     7 G     7G   
#>  8     8 H     8H   
#>  9     9 I     9I   
#> 10    10 J     10J  
#> # ℹ 16 more rows
…
