'Function Factory' for Bespoke Data Frame Retrieval and Replacement — retriever • BitsnBobs
…
## Retrieve selected columns for a row specified using the index
retrieve_starwars("Luke Skywalker", ends_with("color"), homeworld)
#> # A tibble: 1 × 5
#>   name           hair_color skin_color eye_color homeworld
#>   <chr>          <chr>      <chr>      <chr>     <chr>    
#> 1 Luke Skywalker blond      fair       blue      Tatooine 

## Create "retrieval" function with labile_data FALSE
retrieve_original_starwars <- retriever(starwars, name, FALSE)

## Copy of `data` saved in function environment 
environment(retrieve_original_starwars)$data
#> # A tibble: 87 × 14
#>    name  homeworld height  mass hair_color skin_color eye_color birth_year sex  
#>    <chr> <chr>      <int> <dbl> <chr>      <chr>      <chr>          <dbl> <chr>
#>  1 Luke… Tatooine     172    77 blond      fair       blue            19   male 
#>  2 C-3PO Tatooine     167    75 NA         gold       yellow         112   none 
#>  3 R2-D2 Naboo         96    32 NA         white, bl… red             33   none 
#>  4 Dart… Tatooine     202   136 none       white      yellow          41.9 male 
#>  5 Leia… Alderaan     150    49 brown      light      brown           19   fema…
#>  6 Owen… Tatooine     178   120 brown, gr… light      blue            52   male 
#>  7 Beru… Tatooine     165    75 brown      light      blue            47   fema…
#>  8 R5-D4 Tatooine      97    32 NA         white, red red             NA   none 
#>  9 Bigg… Tatooine     183    84 black      light      brown           24   male 
#> 10 Obi-… Stewjon      182    77 auburn, w… fair       blue-gray       57   male 
#> # ℹ 77 more rows
#> # ℹ 5 more variables: gender <chr>, species <chr>, films <list>,
#> #   vehicles <list>, starships <list>
…
