Split Strings In A Data Frame Character Column Into New Rows or Columns — split_to_cols • BitsnBobs
…
#> # A tibble: 10 × 2
#>    name                  skin_color         
#>    <chr>                 <chr>              
#>  1 Ackbar                brown mottle       
#>  2 Ben Quadinaros        grey, green, yellow
#>  3 Gasgano               white, blue        
#>  4 Grievous              brown, white       
#>  5 Jabba Desilijic Tiure green-tan, brown   
#>  6 Nute Gunray           mottled green      
#>  7 R2-D2                 white, blue        
#>  8 R4-P17                silver, red        
#>  9 Shaak Ti              red, blue, white   
#> 10 Zam Wesell            fair, green, yellow
split_to_rows(starwars3, skin_color, ",")
#> # A tibble: 21 × 2
#>    name                  skin_color  
#>    <chr>                 <chr>       
#>  1 Ackbar                brown mottle
#>  2 Ben Quadinaros        grey        
#>  3 Ben Quadinaros        green       
#>  4 Ben Quadinaros        yellow      
#>  5 Gasgano               white       
#>  6 Gasgano               blue        
#>  7 Grievous              brown       
#>  8 Grievous              white       
#>  9 Jabba Desilijic Tiure green-tan   
#> 10 Jabba Desilijic Tiure brown       
#> # ℹ 11 more rows
tidyr::separate_longer_delim(starwars3, skin_color, ",")
#> # A tibble: 21 × 2
#>    name                  skin_color    
#>    <chr>                 <chr>         
#>  1 Ackbar                "brown mottle"
#>  2 Ben Quadinaros        "grey"        
#>  3 Ben Quadinaros        " green"      
#>  4 Ben Quadinaros        " yellow"     
#>  5 Gasgano               "white"       
#>  6 Gasgano               " blue"       
#>  7 Grievous              "brown"       
#>  8 Grievous              " white"      
#>  9 Jabba Desilijic Tiure "green-tan"   
#> 10 Jabba Desilijic Tiure " brown"      
#> # ℹ 11 more rows
…
